TestUpdatetesting.txt,"['Service-Assurance-v245', 'Service-Assurance-v245'],[test1,test2],Ann Elizabeth Babu,2019-10-03,test subdomains[test1,test2],https://gitlab.com/NS-Architecture-HLAA/ns-architecture-hla-repo/blob/master/TestUpdatetesting.txt"
Wiki_demo.txt,"['Service-Assurance-v245'],[test2],Ann Elizabeth Babu,2019-09-20,Wiki for messagess subdomains[test2],https://gitlab.com/NS-Architecture-HLAA/ns-architecture-hla-repo/blob/master/Wiki_demo.txt"
TestMapping.txt,"['Service-Assurance-v245'],[test2],Ann Elizabeth Babu,2019-09-20,Update testing for messagess subdomains[test2],https://gitlab.com/NS-Architecture-HLAA/ns-architecture-hla-repo/blob/master/TestMapping.txt"
testing.txt,"[],[],Pratiksha Rathi,2019-10-03,valid commits testing subdomains[],https://gitlab.com/NS-Architecture-HLAA/ns-architecture-hla-repo/blob/master/testing.txt"
